Designator,Mid X,Mid Y,Rotation,Layer
C1,75.0,-73.0,90.0,top
C2,72.9934,-73.0,90.0,top
C3,63.5,-78.5368,180.0,top
C4,63.5,-76.5302,180.0,top
C5,73.8988,-62.4128,0.0,top
D1,63.5,-55.626,180.0,top
D2,63.5,-53.848,180.0,top
D3,63.5,-52.07,180.0,top
D4,63.5,-57.404,180.0,top
J1,53.768,-67.624,270.0,top
J2,69.596,-78.994,180.0,top
J5,80.269,-57.897,180.0,top
JP1,67.818,-66.797,0.0,top
JP2,71.628,-69.342,180.0,top
R1,70.3451,-62.4382,180.0,top
R2,66.8122,-62.4128,180.0,top
R3,59.944,-55.626,0.0,top
R4,59.944,-53.848,0.0,top
R5,59.944,-52.07,0.0,top
R6,59.944,-57.404,0.0,top
R7,71.1048,-51.9225,270.0,top
R8,69.4792,-51.9225,270.0,top
U1,70.1748,-57.6459,180.0,top
